#	frequency	frequency+coverage	full
1	0.75	0.75	0.8125
2	0.5808	0.6291	0.7883
3	0.5187	0.5851	0.7387
4	0.4764	0.5082	0.6666
5	0.4682	0.4658	0.6389
6	0.4463	0.4647	0.6098
7	0.4469	0.4619	0.5966
8	0.4685	0.472	0.5813
9	0.4996	0.4941	0.5823
10	0.5075	0.4902	0.5769
11	0.4933	0.4761	0.5723
12	0.4786	0.4774	0.563
13	0.4788	0.4742	0.5621
14	0.4795	0.4625	0.5564
15	0.471	0.469	0.5662
16	0.472	0.4659	0.565
17	0.4718	0.486	0.5592
18	0.469	0.4932	0.5524
19	0.4712	0.4903	0.5469
20	0.4854	0.4877	0.5509
